<?xml version="1.0" standalone="no"?>
<!DOCTYPE svg PUBLIC "-//W3C//DTD SVG 1.1//EN" "http://www.w3.org/Graphics/SVG/1.1/DTD/svg11.dtd" >
<svg xmlns="http://www.w3.org/2000/svg">
<metadata></metadata>
<defs>
<font id="arialregular" horiz-adv-x="1139" >
<font-face units-per-em="2048" ascent="1638" descent="-410" />
<missing-glyph horiz-adv-x="569" />
<glyph horiz-adv-x="0" />
<glyph horiz-adv-x="682" />
<glyph unicode=" "  horiz-adv-x="569" />
<glyph unicode="&#x09;" horiz-adv-x="569" />
<glyph unicode="&#xa0;" horiz-adv-x="569" />
<glyph unicode="!" horiz-adv-x="569" d="M176 1141v325h223v-325l-52 -777h-116zM184 0v205h207v-205h-207z" />
<glyph unicode="&#x22;" horiz-adv-x="727" d="M94 1226v240h205v-240l-45 -279h-110zM426 1226v240h205v-240l-48 -279h-108z" />
<glyph unicode="#" d="M21 401v149h199l74 363h-273v149h303l87 429h150l-87 -429h315l87 429h151l-87 -429h173v-149h-203l-75 -363h278v-149h-308l-87 -426h-150l86 426h-314l-87 -426h-150l87 426h-169zM370 550h314l75 363h-315z" />
<glyph unicode="$" d="M73 407l181 34q21 -145 74 -213q76 -96 182 -107v573q-111 21 -227 86q-86 48 -132.5 133t-46.5 193q0 192 136 311q91 80 270 98v86h106v-86q157 -15 249 -92q118 -98 142 -269l-186 -28q-16 106 -66.5 162.5t-138.5 74.5v-519q136 -34 180 -53q84 -37 137 -90 t81.5 -126t28.5 -158q0 -187 -119 -312t-308 -134v-182h-106v180q-135 17 -219.5 60.5t-146 140.5t-71.5 237zM284 1120q0 -92 51.5 -154t174.5 -99v498q-105 -16 -165.5 -84t-60.5 -161zM616 121q105 13 173.5 91t68.5 193q0 98 -48.5 157.5t-193.5 106.5v-548z" />
<glyph unicode="%" horiz-adv-x="1821" d="M119 1114q0 157 79 267t229 110q138 0 228.5 -98.5t90.5 -289.5q0 -186 -91.5 -286.5t-225.5 -100.5q-133 0 -221.5 99t-88.5 299zM276 1096q0 -141 45 -198.5t111 -57.5q68 0 112.5 58t44.5 212q0 142 -45 199.5t-112 57.5t-111.5 -58t-44.5 -213zM433 -54l802 1545h146 l-799 -1545h-149zM1067 344q0 158 79 267.5t230 109.5q138 0 228.5 -98.5t90.5 -289.5q0 -186 -91.5 -286.5t-226.5 -100.5q-133 0 -221.5 99.5t-88.5 298.5zM1224 326q0 -140 45 -198t111 -58q69 0 113.5 58t44.5 212q0 142 -45 199.5t-112 57.5q-68 0 -112.5 -58 t-44.5 -213z" />
<glyph unicode="&#x26;" horiz-adv-x="1366" d="M88 404q0 136 87.5 245.5t261.5 192.5q-99 114 -132 185t-33 137q0 132 103.5 229.5t260.5 97.5q150 0 245.5 -92t95.5 -221q0 -209 -277 -357l263 -335q45 88 70 204l187 -40q-48 -192 -130 -316q101 -134 229 -225l-121 -143q-109 70 -225 207q-89 -99 -194 -148.5 t-227 -49.5q-225 0 -357 152q-107 124 -107 277zM282 415q0 -89 71 -185t201 -96q81 0 167.5 50.5t138.5 130.5l-330 409q-146 -87 -197 -161.5t-51 -147.5zM457 1181q0 -34 17.5 -71.5t52.5 -79.5l80 -93q117 69 151.5 121t34.5 115q0 75 -47.5 122.5t-118.5 47.5 q-73 0 -121.5 -47t-48.5 -115z" />
<glyph unicode="'" horiz-adv-x="391" d="M90 1221v245h205v-245l-48 -274h-111z" />
<glyph unicode="(" horiz-adv-x="682" d="M124 531q0 238 77 456q90 253 278 504h129q-121 -208 -160 -297q-61 -138 -96 -288q-43 -187 -43 -376q0 -481 299 -961h-129q-149 188 -252 440t-103 522z" />
<glyph unicode=")" horiz-adv-x="682" d="M124 -431q299 480 299 961q0 188 -43 373q-34 150 -95 288q-39 90 -161 300h129q188 -251 278 -504q77 -218 77 -456q0 -270 -103.5 -522t-251.5 -440h-129z" />
<glyph unicode="*" horiz-adv-x="797" d="M64 1197l46 142q159 -56 231 -97q-19 181 -20 249h145q-3 -99 -23 -248q103 52 236 96l46 -142q-127 -42 -249 -56q61 -53 172 -189l-120 -85q-58 79 -137 215q-74 -141 -130 -215l-118 85q116 143 166 189q-129 25 -245 56z" />
<glyph unicode="+" horiz-adv-x="1196" d="M114 639v168h399v399h170v-399h399v-168h-399v-402h-170v402h-399z" />
<glyph unicode="," horiz-adv-x="569" d="M170 -213q57 25 84 73.5t30 139.5h-102v205h205v-205q0 -113 -40 -182.5t-127 -107.5z" />
<glyph unicode="-" horiz-adv-x="682" d="M65 440v181h553v-181h-553z" />
<glyph unicode="." horiz-adv-x="569" d="M186 0v205h205v-205h-205z" />
<glyph unicode="/" horiz-adv-x="569" d="M0 -25l425 1516h144l-424 -1516h-145z" />
<glyph unicode="0" d="M85 723q0 260 53.5 418.5t159 244.5t265.5 86q118 0 207 -47.5t147 -137t91 -218t33 -346.5q0 -258 -53 -416.5t-158.5 -245t-266.5 -86.5q-212 0 -333 152q-145 183 -145 596zM270 723q0 -361 84.5 -480.5t208.5 -119.5t208.5 120t84.5 480q0 362 -84.5 481t-210.5 119 q-124 0 -198 -105q-93 -134 -93 -495z" />
<glyph unicode="1" d="M223 930v174q151 71 264 172t160 196h116v-1472h-180v1147q-65 -62 -170.5 -124t-189.5 -93z" />
<glyph unicode="2" d="M62 0q-2 65 21 125q37 99 118.5 195t235.5 222q239 196 323 310.5t84 216.5q0 107 -76.5 180.5t-199.5 73.5q-130 0 -208 -78t-79 -216l-185 19q19 207 143 315.5t333 108.5q211 0 334 -117t123 -290q0 -88 -36 -173t-119.5 -179t-277.5 -258q-162 -136 -208 -184.5 t-76 -97.5h719v-173h-969z" />
<glyph unicode="3" d="M86 387l180 24q31 -153 105.5 -220.5t181.5 -67.5q127 0 214.5 88t87.5 218q0 124 -81 204.5t-206 80.5q-51 0 -127 -20l20 158q18 -2 29 -2q115 0 207 60t92 185q0 99 -67 164t-173 65q-105 0 -175 -66t-90 -198l-180 32q33 181 150 280.5t291 99.5q120 0 221 -51.5 t154.5 -140.5t53.5 -189q0 -95 -51 -173t-151 -124q130 -30 202 -124.5t72 -236.5q0 -192 -140 -325.5t-354 -133.5q-193 0 -320.5 115t-145.5 298z" />
<glyph unicode="4" d="M26 351v165l669 950h147v-950h198v-165h-198v-351h-180v351h-636zM203 516h459v661z" />
<glyph unicode="5" d="M85 384l189 16q21 -138 97.5 -207.5t184.5 -69.5q130 0 220 98t90 260q0 154 -86.5 243t-226.5 89q-87 0 -157 -39.5t-110 -102.5l-169 22l142 753h729v-172h-585l-79 -394q132 92 277 92q192 0 324 -133t132 -342q0 -199 -116 -344q-141 -178 -385 -178 q-200 0 -326.5 112t-144.5 297z" />
<glyph unicode="6" d="M77 686q0 425 157 618q137 168 369 168q173 0 283.5 -97t132.5 -268l-179 -14q-24 106 -68 154q-73 77 -180 77q-86 0 -151 -48q-85 -62 -134 -181t-51 -339q65 99 159 147t197 48q180 0 306.5 -132.5t126.5 -342.5q0 -138 -59.5 -256.5t-163.5 -181.5t-236 -63 q-225 0 -367 165.5t-142 545.5zM284 475q0 -93 39.5 -178t110.5 -129.5t149 -44.5q114 0 196 92t82 250q0 152 -81 239.5t-204 87.5q-122 0 -207 -87.5t-85 -229.5z" />
<glyph unicode="7" d="M97 1274v173h949v-140q-140 -149 -277.5 -396t-212.5 -508q-54 -184 -69 -403h-185q3 173 68 418t186.5 472.5t258.5 383.5h-718z" />
<glyph unicode="8" d="M83 424q0 143 72.5 239.5t206.5 131.5q-112 41 -166 117t-54 182q0 160 115 269t306 109q192 0 309 -111.5t117 -271.5q0 -102 -53.5 -177.5t-162.5 -116.5q135 -44 205.5 -142t70.5 -234q0 -188 -133 -316t-350 -128t-350 128.5t-133 320.5zM268 423q0 -77 36.5 -149 t108.5 -111.5t155 -39.5q129 0 213 83t84 211q0 130 -86.5 215t-216.5 85q-127 0 -210.5 -84t-83.5 -210zM326 1100q0 -104 67 -170t174 -66q104 0 170.5 65.5t66.5 160.5q0 99 -68.5 166.5t-170.5 67.5q-103 0 -171 -66t-68 -158z" />
<glyph unicode="9" d="M85 977q0 223 131.5 359t329.5 136q143 0 261.5 -77t180 -219.5t61.5 -412.5q0 -281 -61 -447.5t-181.5 -253.5t-282.5 -87q-172 0 -281 95.5t-131 268.5l173 16q22 -122 84 -177t159 -55q83 0 145.5 38t102.5 101.5t67 171.5t27 220q0 12 -1 36q-54 -86 -147.5 -139.5 t-202.5 -53.5q-182 0 -308 132t-126 348zM270 971q0 -140 84.5 -227.5t208.5 -87.5q125 0 205.5 87.5t80.5 242.5t-82.5 246t-198.5 91q-120 0 -209 -98t-89 -254z" />
<glyph unicode=":" horiz-adv-x="569" d="M185 0v205h205v-205h-205zM185 857v205h205v-205h-205z" />
<glyph unicode=";" horiz-adv-x="569" d="M170 -213q57 25 84 73.5t30 139.5h-102v205h205v-205q0 -113 -40 -182.5t-127 -107.5zM182 857v205h205v-205h-205z" />
<glyph unicode="&#x3c;" horiz-adv-x="1196" d="M112 641v168l971 410v-179l-770 -316l770 -319v-179z" />
<glyph unicode="=" horiz-adv-x="1196" d="M114 417v168h968v-168h-968zM114 862v168h968v-168h-968z" />
<glyph unicode="&#x3e;" horiz-adv-x="1196" d="M112 226v179l769 319l-769 316v179l971 -410v-168z" />
<glyph unicode="?" d="M90 1068q25 205 148.5 314t326.5 109q215 0 343 -117t128 -283q0 -96 -45 -177t-176 -197q-88 -78 -115 -115t-40 -85t-15 -156h-173q-1 36 -1 54q0 106 30 183q22 58 71 117q36 43 129.5 125.5t121.5 131.5t28 107q0 105 -82 184.5t-201 79.5q-115 0 -192 -72t-101 -225 zM461 0v205h205v-205h-205z" />
<glyph unicode="@" horiz-adv-x="2079" d="M111 469q0 244 100 465q122 271 346.5 415t544.5 144q248 0 445.5 -101.5t311.5 -302.5q97 -173 97 -376q0 -290 -204 -515q-182 -202 -398 -202q-69 0 -111.5 21t-62.5 60q-13 25 -19 86q-65 -75 -145.5 -120.5t-161.5 -45.5q-89 0 -173 52t-136.5 160t-52.5 237 q0 159 81.5 318.5t202.5 239.5t235 80q87 0 166 -45.5t136 -138.5l34 155h179l-144 -671q-30 -140 -30 -155q0 -27 20.5 -46.5t49.5 -19.5q53 0 139 61q114 80 180.5 214.5t66.5 277.5q0 167 -85.5 312t-255 232t-374.5 87q-234 0 -427.5 -109.5t-300 -314t-106.5 -438.5 q0 -245 106.5 -422t308 -261.5t446.5 -84.5q262 0 439 88t265 214h181q-51 -105 -175 -214t-295 -172.5t-412 -63.5q-222 0 -409.5 57t-319.5 171.5t-199 263.5q-84 189 -84 408zM677 434q0 -137 65 -213t149 -76q56 0 118 33.5t118.5 99.5t92.5 167.5t36 203.5 q0 136 -67.5 211t-164.5 75q-64 0 -120.5 -32.5t-109.5 -104.5t-85 -175t-32 -189z" />
<glyph unicode="A" horiz-adv-x="1366" d="M-3 0l563 1466h209l600 -1466h-221l-171 444h-613l-161 -444h-206zM420 602h497l-153 406q-70 185 -104 304q-28 -141 -79 -280z" />
<glyph unicode="B" horiz-adv-x="1366" d="M150 0v1466h550q168 0 269.5 -44.5t159 -137t57.5 -193.5q0 -94 -51 -177t-154 -134q133 -39 204.5 -133t71.5 -222q0 -103 -43.5 -191.5t-107.5 -136.5t-160.5 -72.5t-236.5 -24.5h-559zM344 173h365q94 0 132 7q67 12 112 40t74 81.5t29 123.5q0 82 -42 142.5 t-116.5 85t-214.5 24.5h-339v-504zM344 850h317q129 0 185 17q74 22 111.5 73t37.5 128q0 73 -35 128.5t-100 76t-223 20.5h-293v-443z" />
<glyph unicode="C" horiz-adv-x="1479" d="M102 744q0 229 87.5 399.5t249 259t355.5 88.5q220 0 370 -112t209 -315l-191 -45q-51 160 -148 233t-244 73q-169 0 -282.5 -81t-159.5 -217.5t-46 -281.5q0 -187 54.5 -326.5t169.5 -208.5t249 -69q163 0 276 94t153 279l194 -49q-61 -239 -219.5 -364.5t-387.5 -125.5 q-237 0 -385.5 96.5t-226 279.5t-77.5 393z" />
<glyph unicode="D" horiz-adv-x="1479" d="M158 0v1466h505q171 0 261 -21q126 -29 215 -105q116 -98 173.5 -250.5t57.5 -348.5q0 -167 -39 -296t-100 -213.5t-133.5 -133t-175 -73.5t-235.5 -25h-529zM352 173h313q145 0 227.5 27t131.5 76q69 69 107.5 185.5t38.5 282.5q0 230 -75.5 353.5t-183.5 165.5 q-78 30 -251 30h-308v-1120z" />
<glyph unicode="E" horiz-adv-x="1366" d="M162 0v1466h1060v-173h-866v-449h811v-172h-811v-499h900v-173h-1094z" />
<glyph unicode="F" horiz-adv-x="1251" d="M168 0v1466h989v-173h-795v-454h688v-173h-688v-666h-194z" />
<glyph unicode="G" horiz-adv-x="1593" d="M109 726q0 214 89.5 399.5t257.5 275.5t387 90q159 0 287.5 -51.5t201.5 -143.5t111 -240l-175 -48q-33 112 -82 176t-140 102.5t-202 38.5q-133 0 -230 -40.5t-156.5 -106.5t-92.5 -145q-56 -136 -56 -295q0 -196 67.5 -328t196.5 -196t274 -64q126 0 246 48.5 t182 103.5v273h-431v172l621 1v-544q-143 -114 -295 -171.5t-312 -57.5q-216 0 -392.5 92.5t-266.5 267.5t-90 391z" />
<glyph unicode="H" horiz-adv-x="1479" d="M164 0v1466h194v-602h762v602h194v-1466h-194v691h-762v-691h-194z" />
<glyph unicode="I" horiz-adv-x="569" d="M191 0v1466h194v-1466h-194z" />
<glyph unicode="J" horiz-adv-x="1024" d="M59 416l175 24q7 -168 63 -230t155 -62q73 0 126 33.5t73 91t20 183.5v1010h194v-999q0 -184 -44.5 -285t-141 -154t-226.5 -53q-193 0 -295 111q-99 107 -99 314v16z" />
<glyph unicode="K" horiz-adv-x="1366" d="M150 0v1466h194v-727l728 727h263l-615 -594l642 -872h-256l-522 742l-240 -234v-508h-194z" />
<glyph unicode="L" d="M150 0v1466h194v-1293h722v-173h-916z" />
<glyph unicode="M" horiz-adv-x="1706" d="M152 0v1466h292l347 -1038q48 -145 70 -217q25 80 78 235l351 1020h261v-1466h-187v1227l-426 -1227h-175l-424 1248v-1248h-187z" />
<glyph unicode="N" horiz-adv-x="1479" d="M156 0v1466h199l770 -1151v1151h186v-1466h-199l-770 1152v-1152h-186z" />
<glyph unicode="O" horiz-adv-x="1593" d="M99 714q0 365 196 571.5t506 206.5q203 0 366 -97t248.5 -270.5t85.5 -393.5q0 -223 -90 -399t-255 -266.5t-356 -90.5q-207 0 -370 100t-247 273t-84 366zM299 711q0 -265 142.5 -417.5t357.5 -152.5q219 0 360.5 154t141.5 437q0 179 -60.5 312.5t-177 207t-261.5 73.5 q-206 0 -354.5 -141.5t-148.5 -472.5z" />
<glyph unicode="P" horiz-adv-x="1366" d="M158 0v1466h553q146 0 223 -14q108 -18 181 -68.5t117.5 -141.5t44.5 -200q0 -187 -119 -316.5t-430 -129.5h-376v-596h-194zM352 769h379q188 0 267 70t79 197q0 92 -46.5 157.5t-122.5 86.5q-49 13 -181 13h-375v-524z" />
<glyph unicode="Q" horiz-adv-x="1593" d="M88 733q0 217 88 395t250.5 271t363.5 93q203 0 366 -96.5t248.5 -270t85.5 -391.5q0 -181 -55 -325.5t-166 -251.5q135 -93 249 -136l-57 -135q-158 57 -315 180q-163 -91 -360 -91q-199 0 -361 96t-249.5 270t-87.5 392zM288 733q0 -286 141.5 -439t361.5 -153 q104 0 196 39q-91 59 -192 84l47 141q168 -47 277 -140q171 156 171 469q0 178 -60.5 311t-177 206.5t-261.5 73.5q-217 0 -360 -148.5t-143 -443.5z" />
<glyph unicode="R" horiz-adv-x="1479" d="M161 0v1466h650q196 0 298 -39.5t163 -139.5t61 -221q0 -156 -101 -263t-312 -136q77 -37 117 -73q85 -78 161 -195l255 -399h-244l-194 305q-85 132 -140 202t-98.5 98t-88.5 39q-33 7 -108 7h-225v-651h-194zM355 819h417q133 0 208 27.5t114 88t39 131.5 q0 104 -75.5 171t-238.5 67h-464v-485z" />
<glyph unicode="S" horiz-adv-x="1366" d="M92 471l183 16q13 -110 60.5 -180.5t147.5 -114t225 -43.5q111 0 196 33t126.5 90.5t41.5 125.5q0 69 -40 120.5t-132 86.5q-59 23 -261 71.5t-283 91.5q-105 55 -156.5 136.5t-51.5 182.5q0 111 63 207.5t184 146.5t269 50q163 0 287.5 -52.5t191.5 -154.5t72 -231 l-186 -14q-15 139 -101.5 210t-255.5 71q-176 0 -256.5 -64.5t-80.5 -155.5q0 -79 57 -130q56 -51 292.5 -104.5t324.5 -93.5q128 -59 189 -149.5t61 -208.5q0 -117 -67 -220.5t-192.5 -161t-282.5 -57.5q-199 0 -333.5 58t-211 174.5t-80.5 263.5z" />
<glyph unicode="T" horiz-adv-x="1251" d="M48 1293v173h1162v-173h-485v-1293h-194v1293h-483z" />
<glyph unicode="U" horiz-adv-x="1479" d="M161 619v847h194v-846q0 -191 35.5 -281.5t122 -139.5t211.5 -49q214 0 305 97t91 373v846h194v-847q0 -221 -50 -351t-180.5 -211.5t-342.5 -81.5q-206 0 -337 71t-187 205.5t-56 367.5z" />
<glyph unicode="V" horiz-adv-x="1366" d="M9 1466h210l381 -1065q46 -128 77 -240q34 120 79 240l396 1065h198l-574 -1466h-199z" />
<glyph unicode="W" horiz-adv-x="1933" d="M25 1466h199l223 -961q36 -151 62 -300q56 235 66 271l279 990h234l210 -742q79 -276 114 -519q28 139 73 319l230 942h195l-402 -1466h-187l-309 1117q-39 140 -46 172q-23 -101 -43 -172l-311 -1117h-198z" />
<glyph unicode="X" horiz-adv-x="1366" d="M9 0l567 764l-500 702h231l266 -376q83 -117 118 -180q49 80 116 167l295 389h211l-515 -691l555 -775h-240l-369 523q-31 45 -64 98q-49 -80 -70 -110l-368 -511h-233z" />
<glyph unicode="Y" horiz-adv-x="1366" d="M6 1466h236l289 -442q80 -124 149 -248q66 115 160 259l284 431h226l-585 -845v-621h-194v621z" />
<glyph unicode="Z" horiz-adv-x="1251" d="M41 0v180l751 939q80 100 152 174h-818v173h1050v-173l-823 -1017l-89 -103h936v-173h-1159z" />
<glyph unicode="[" horiz-adv-x="569" d="M139 -407v1873h397v-149h-217v-1575h217v-149h-397z" />
<glyph unicode="\" horiz-adv-x="569" d="M0 1491h145l424 -1516h-144z" />
<glyph unicode="]" horiz-adv-x="569" d="M39 -258h217v1575h-217v149h397v-1873h-397v149z" />
<glyph unicode="^" horiz-adv-x="961" d="M54 690l353 801h145l355 -801h-181l-247 597l-240 -597h-185z" />
<glyph unicode="_" d="M-31 -277h1193v-130h-1193v130z" />
<glyph unicode="`" horiz-adv-x="682" d="M89 1474h241l135 -280h-145z" />
<glyph unicode="a" d="M74 280q0 78 35.5 142.5t93 103.5t129.5 59q53 14 160 27q218 26 321 62q1 37 1 47q0 110 -51 155q-69 61 -205 61q-127 0 -187.5 -44.5t-89.5 -157.5l-176 24q24 113 79 182.5t159 107t241 37.5q136 0 221 -32t125 -80.5t56 -122.5q9 -46 9 -166v-240 q0 -251 11.5 -317.5t45.5 -127.5h-188q-28 56 -36 131q-100 -85 -192.5 -120t-198.5 -35q-175 0 -269 85.5t-94 218.5zM266 285q0 -72 54.5 -120t159.5 -48q104 0 185 45.5t119 124.5q29 61 29 180v66q-98 -40 -294 -68q-111 -16 -157 -36t-71 -58.5t-25 -85.5z" />
<glyph unicode="b" d="M134 0v1466h180v-523q114 143 291 143q98 0 185.5 -39.5t144 -111t88.5 -172.5t32 -216q0 -273 -135 -422t-324 -149q-188 0 -295 157v-133h-167zM299 539q0 -191 52 -276q85 -139 230 -139q118 0 204 102.5t86 305.5q0 208 -82.5 307t-199.5 99q-118 0 -204 -102.5 t-86 -296.5z" />
<glyph unicode="c" horiz-adv-x="1024" d="M80 527q0 172 57 301t173.5 193.5t253.5 64.5q173 0 283 -87.5t141 -248.5l-175 -27q-25 107 -88.5 161t-153.5 54q-136 0 -221 -97.5t-85 -308.5q0 -214 82 -311t214 -97q106 0 177 65t90 200l177 -23q-29 -183 -148.5 -286.5t-293.5 -103.5q-218 0 -350.5 142.5 t-132.5 408.5z" />
<glyph unicode="d" d="M70 530q0 159 53 288.5t159 198.5t237 69q96 0 171 -40.5t122 -105.5v526h179v-1466h-167v134q-101 -158 -297 -158q-127 0 -233.5 70t-165 195.5t-58.5 288.5zM255 530q0 -204 86 -305t203 -101q118 0 200.5 96.5t82.5 294.5q0 218 -84 320t-207 102q-120 0 -200.5 -98 t-80.5 -309z" />
<glyph unicode="e" d="M75 522q0 268 138 416t358 148q213 0 348 -145t135 -408q0 -16 -1 -48h-792q10 -175 99 -268t222 -93q99 0 169 52t111 166l186 -23q-44 -163 -163 -253t-304 -90q-233 0 -369.5 143.5t-136.5 402.5zM271 633h593q-12 134 -68 201q-86 104 -223 104q-124 0 -208.5 -83 t-93.5 -222z" />
<glyph unicode="f" horiz-adv-x="569" d="M19 922v140h159v113q0 107 19 159q26 70 91.5 113.5t183.5 43.5q76 0 168 -18l-27 -157q-56 10 -106 10q-82 0 -116 -35t-34 -131v-98h207v-140h-207v-922h-179v922h-159z" />
<glyph unicode="g" d="M66 537q0 152 55 280.5t159.5 198.5t245.5 70q188 0 310 -152v128h166v-918q0 -248 -50.5 -351.5t-160 -163.5t-269.5 -60q-190 0 -307 85q-113 83 -113 247v11l175 -26q11 -81 61 -118q67 -50 183 -50q125 0 193 50t92 140q13 51 13 208v23q-118 -139 -294 -139 q-219 0 -339 158t-120 379zM251 550q0 -209 83 -305t208 -96q124 0 208 95.5t84 299.5q0 195 -86.5 294t-208.5 99q-120 0 -204 -97.5t-84 -289.5z" />
<glyph unicode="h" d="M135 0v1466h180v-526q126 146 318 146q118 0 205 -46.5t124.5 -128.5t37.5 -238v-673h-180v673q0 135 -58.5 196.5t-165.5 61.5q-80 0 -150.5 -41.5t-100.5 -112.5t-30 -196v-581h-180z" />
<glyph unicode="i" horiz-adv-x="455" d="M136 0v1062h180v-1062h-180zM136 1259v207h180v-207h-180z" />
<glyph unicode="j" horiz-adv-x="455" d="M-94 -412l34 153q54 -14 85 -14q55 0 82 36.5t27 182.5v1116h180v-1120q0 -196 -51 -273q-65 -100 -216 -100q-73 0 -141 19zM134 1257v209h180v-209h-180z" />
<glyph unicode="k" horiz-adv-x="1024" d="M136 0v1466h180v-836l426 432h233l-406 -394l447 -668h-222l-351 543l-127 -122v-421h-180z" />
<glyph unicode="l" horiz-adv-x="455" d="M131 0v1466h180v-1466h-180z" />
<glyph unicode="m" horiz-adv-x="1706" d="M135 0v1062h161v-149q50 78 133 125.5t189 47.5q118 0 193.5 -49t106.5 -137q126 186 328 186q158 0 243 -87.5t85 -269.5v-729h-179v669q0 108 -17.5 155.5t-63.5 76.5t-108 29q-112 0 -186 -74.5t-74 -238.5v-617h-180v690q0 120 -44 180t-144 60q-76 0 -140.5 -40 t-93.5 -117t-29 -222v-551h-180z" />
<glyph unicode="n" d="M135 0v1062h162v-151q117 175 338 175q96 0 176.5 -34.5t120.5 -90.5t56 -133q10 -50 10 -175v-653h-180v646q0 110 -21 164.5t-74.5 87t-125.5 32.5q-115 0 -198.5 -73t-83.5 -277v-580h-180z" />
<glyph unicode="o" d="M68 531q0 295 164 437q137 118 334 118q219 0 358 -143.5t139 -396.5q0 -205 -61.5 -322.5t-179 -182.5t-256.5 -65q-223 0 -360.5 143t-137.5 412zM253 531q0 -204 89 -305.5t224 -101.5q134 0 223 102t89 311q0 197 -89.5 298.5t-222.5 101.5q-135 0 -224 -101 t-89 -305z" />
<glyph unicode="p" d="M135 -407v1469h164v-138q58 81 131 121.5t177 40.5q136 0 240 -70t157 -197.5t53 -279.5q0 -163 -58.5 -293.5t-170 -200t-234.5 -69.5q-90 0 -161.5 38t-117.5 96v-517h-180zM298 525q0 -205 83 -303t201 -98q120 0 205.5 101.5t85.5 314.5q0 203 -83.5 304t-199.5 101 q-115 0 -203.5 -107.5t-88.5 -312.5z" />
<glyph unicode="q" d="M72 541q0 160 55.5 287t161 192.5t231.5 65.5q197 0 310 -166v142h162v-1469h-180v520q-42 -59 -117.5 -98t-160.5 -39q-189 0 -325.5 151t-136.5 414zM257 534q0 -205 86 -307.5t206 -102.5q115 0 198 97.5t83 296.5q0 212 -87.5 319t-205.5 107q-117 0 -198.5 -99.5 t-81.5 -310.5z" />
<glyph unicode="r" horiz-adv-x="682" d="M133 0v1062h162v-161q62 113 114.5 149t115.5 36q91 0 185 -58l-62 -167q-66 39 -132 39q-59 0 -106 -35.5t-67 -98.5q-30 -96 -30 -210v-556h-180z" />
<glyph unicode="s" horiz-adv-x="1024" d="M63 317l178 28q15 -107 83.5 -164t191.5 -57q124 0 184 50.5t60 118.5q0 61 -53 96q-37 24 -184 61q-198 50 -274.5 86.5t-116 101t-39.5 142.5q0 71 32.5 131.5t88.5 100.5q42 31 114.5 52.5t155.5 21.5q125 0 219.5 -36t139.5 -97.5t62 -164.5l-176 -24 q-12 82 -69.5 128t-162.5 46q-124 0 -177 -41t-53 -96q0 -35 22 -63q22 -29 69 -48q27 -10 159 -46q191 -51 266.5 -83.5t118.5 -94.5t43 -154q0 -90 -52.5 -169.5t-151.5 -123t-224 -43.5q-207 0 -315.5 86t-138.5 255z" />
<glyph unicode="t" horiz-adv-x="569" d="M36 922v140h132v263l179 108v-371h181v-140h-181v-621q0 -77 9.5 -99t31 -35t61.5 -13q30 0 79 7l26 -159q-76 -16 -136 -16q-98 0 -152 31t-76 81.5t-22 212.5v611h-132z" />
<glyph unicode="u" d="M131 404v658h180v-589q0 -141 11 -190q17 -71 72 -111.5t136 -40.5t152 41.5t100.5 113t29.5 207.5v569h180v-1062h-161v156q-124 -180 -337 -180q-94 0 -175.5 36t-121 90.5t-55.5 133.5q-11 53 -11 168z" />
<glyph unicode="v" horiz-adv-x="1024" d="M26 1062h190l228 -636q37 -103 68 -214q24 84 67 202l236 648h185l-402 -1062h-168z" />
<glyph unicode="w" horiz-adv-x="1479" d="M6 1062h186l169 -613l63 -228q4 17 55 219l169 622h185l159 -616l53 -203l61 205l182 614h175l-332 -1062h-187l-169 636l-41 181l-215 -817h-188z" />
<glyph unicode="x" horiz-adv-x="1024" d="M15 0l388 552l-359 510h225l163 -249q46 -71 74 -119q44 66 81 117l179 251h215l-367 -500l395 -562h-221l-218 330l-58 89l-279 -419h-218z" />
<glyph unicode="y" horiz-adv-x="1024" d="M33 1062h194l221 -615q43 -117 77 -246q31 124 74 242l227 619h180l-404 -1080q-65 -175 -101 -241q-48 -89 -110 -130.5t-148 -41.5q-52 0 -116 22l-20 169q59 -16 103 -16q60 0 96 20t59 56q17 27 55 134q5 15 16 44z" />
<glyph unicode="z" horiz-adv-x="1024" d="M40 0v146l676 776q-115 -6 -203 -6h-433v146h868v-119l-575 -674l-111 -123q121 9 227 9h491v-155h-940z" />
<glyph unicode="{" horiz-adv-x="684" d="M57 449v163q77 2 125.5 41.5t64.5 108.5t17 236t6 220q9 84 33.5 135t60.5 81.5t92 46.5q38 10 124 10h56v-157h-31q-104 0 -138 -37.5t-34 -167.5q0 -262 -11 -331q-18 -107 -61.5 -165t-136.5 -103q110 -46 159.5 -140.5t49.5 -309.5q0 -195 4 -232q8 -68 40.5 -95 t127.5 -27h31v-157h-56q-98 0 -142 16q-64 23 -106 74.5t-54.5 130.5t-13.5 259t-17 249t-64.5 109t-125.5 42z" />
<glyph unicode="|" horiz-adv-x="532" d="M188 -431v1922h157v-1922h-157z" />
<glyph unicode="}" horiz-adv-x="684" d="M47 -274h31q104 0 138 37.5t34 168.5q0 250 9 317q16 111 64 177.5t136 103.5q-115 55 -162 145.5t-47 305.5q0 195 -5 233q-7 67 -39.5 93.5t-127.5 26.5h-31v157h56q98 0 142 -16q64 -22 106 -74t54.5 -131t13.5 -259t17 -248.5t64.5 -108.5t125.5 -42v-163 q-77 -2 -125.5 -42t-64.5 -108.5t-17 -235.5t-6 -220q-9 -85 -33.5 -135.5t-60.5 -81t-92 -46.5q-38 -11 -124 -11h-56v157z" />
<glyph unicode="~" horiz-adv-x="1196" d="M87 557v205q106 120 278 120q60 0 126 -17.5t188 -69.5q69 -29 103.5 -38t69.5 -9q65 0 134.5 39t123.5 98v-212q-64 -60 -129.5 -87t-147.5 -27q-60 0 -114.5 14t-173 67t-197.5 53q-64 0 -120.5 -27.5t-140.5 -108.5z" />
<glyph unicode="&#xa1;" horiz-adv-x="682" d="M232 -79l52 776h116l55 -776v-325h-223v325zM240 857v205h207v-205h-207z" />
<glyph unicode="&#xa2;" d="M107 526q0 178 58.5 305.5t175 191.5t237.5 64q36 0 100 -8l113 387l110 -32l-112 -387q99 -43 152 -115.5t74 -181.5l-175 -27q-26 112 -96 171l-222 -766q33 -9 61 -9q104 0 179.5 71t92.5 199l179 -20q-33 -185 -156.5 -291t-291.5 -106q-49 0 -103 14l-118 -395 l-112 32l115 398q-115 55 -188 183.5t-73 321.5zM292 535q0 -132 32 -223t91 -135l223 763q-32 3 -50 3q-82 0 -153.5 -45.5t-107 -141t-35.5 -221.5z" />
<glyph unicode="&#xa3;" d="M27 145q96 53 163 151.5t67 240.5q0 61 -17 124h-196v148h154q-33 112 -42 163.5t-9 100.5q0 208 154 325q124 93 300 93q181 0 298.5 -99.5t144.5 -279.5l-179 -27q-15 120 -89.5 189t-178.5 69q-111 0 -184.5 -71.5t-73.5 -172.5q0 -111 57 -290h315v-148h-284 q19 -44 19 -88q0 -87 -41.5 -184t-136.5 -198q79 22 144 22q83 0 187 -25q172 -41 233 -41q74 0 192 56l58 -165q-92 -39 -142.5 -51t-100.5 -12q-42 0 -85 8q-27 5 -129.5 36.5t-132.5 37.5q-47 8 -94 8q-72 0 -153.5 -25t-148.5 -68z" />
<glyph unicode="&#xa4;" d="M74 354l139 136q-71 110 -71 236q0 125 71 235l-139 136l115 119l139 -139q106 72 237 72q132 0 237 -72l139 139l116 -119l-139 -136q71 -110 71 -235q0 -126 -71 -236l139 -136l-116 -119l-139 140q-105 -73 -237 -73q-131 0 -237 73l-139 -140zM305 726 q0 -108 76 -184t183 -76t183 76t76 184q0 107 -75.5 183t-183.5 76q-107 0 -183 -76t-76 -183z" />
<glyph unicode="&#xa5;" d="M-3 1466h200l290 -516q49 -88 76 -154q23 53 82 163l274 507h214l-405 -711h341v-148h-412v-143h412v-139h-412v-325h-180v325h-415v139h415v143h-415v148h341z" />
<glyph unicode="&#xa6;" horiz-adv-x="532" d="M188 360h157v-791h-157v791zM188 701v790h157v-790h-157z" />
<glyph unicode="&#xa7;" d="M81 644q0 96 60 174t165 109q-71 68 -100 125.5t-29 122.5q0 128 100 222t265 94q187 0 292 -89t126 -258l-187 -19q-21 122 -73.5 170t-141.5 48q-92 0 -148.5 -49.5t-56.5 -109.5q0 -52 36 -96q56 -68 306 -220q157 -96 212 -141q71 -60 104.5 -124t33.5 -139 q0 -113 -73 -193q-42 -46 -154 -93q80 -61 119.5 -131t39.5 -150q0 -88 -50 -166.5t-144 -120t-203 -41.5q-191 0 -303 95.5t-134 265.5l181 26q28 -130 89 -182.5t166 -52.5q102 0 159.5 52t57.5 122q0 51 -36 94q-62 75 -340 245q-148 91 -206.5 142.5t-95.5 121.5 t-37 146zM244 664q0 -63 46 -120t207 -152q134 -79 231 -148q74 38 110.5 88.5t36.5 98.5q0 57 -52 120q-53 63 -225 169q-137 84 -204 138q-81 -46 -115.5 -92t-34.5 -102z" />
<glyph unicode="&#xa8;" horiz-adv-x="682" d="M61 1270v205h188v-205h-188zM434 1270v205h188v-205h-188z" />
<glyph unicode="&#xa9;" horiz-adv-x="1509" d="M3 736q0 197 101.5 378.5t282.5 279t371 97.5t371 -97.5t282 -279t101 -378.5q0 -195 -99.5 -375t-279 -279.5t-375.5 -99.5t-375.5 99.5t-279.5 279.5t-100 375zM128 736q0 -163 83.5 -312.5t233.5 -233t313 -83.5t313 83.5t233 233t83 312.5q0 164 -84.5 315.5 t-235.5 233t-309 81.5q-159 0 -309.5 -81.5t-235.5 -233t-85 -315.5zM363 734q0 132 50 229.5t142.5 147t211.5 49.5q133 0 221 -63.5t120 -172.5l-119 -29q-30 74 -88.5 113.5t-137.5 39.5q-115 0 -189.5 -82t-74.5 -235t70.5 -231.5t182.5 -78.5q90 0 158 52t90 141 l123 -36q-30 -125 -127.5 -199.5t-236.5 -74.5q-176 0 -286 114t-110 316z" />
<glyph unicode="&#xaa;" horiz-adv-x="758" d="M47 965q0 48 16 84t47.5 64t81.5 45q35 11 99 21l147 22q72 14 96 20q-1 70 -14 94t-48.5 41.5t-94.5 17.5q-79 0 -118 -32.5t-48 -92.5l-137 34q12 89 88 148.5t217 59.5q164 0 232 -61q67 -62 67 -181v-240l-1 -61q0 -134 41 -184h-148q-20 40 -22 89 q-122 -107 -256 -107q-113 0 -179 61.5t-66 157.5zM196 965q0 -41 34 -70t96 -29q73 0 127 39t72 96q7 20 8 103q-53 -14 -192 -36q-90 -14 -117 -39q-28 -26 -28 -64z" />
<glyph unicode="&#xab;" d="M134 528l319 456h148l-261 -456l259 -456h-146zM526 528l313 456h152l-264 -456l264 -456h-152z" />
<glyph unicode="&#xac;" horiz-adv-x="1196" d="M114 862v168h968v-606h-170v438h-798z" />
<glyph unicode="&#xad;" horiz-adv-x="682" d="M65 440v181h553v-181h-553z" />
<glyph unicode="&#xae;" horiz-adv-x="1509" d="M3 736q0 197 101.5 378.5t282.5 279t371 97.5t371 -97.5t282 -279t101 -378.5q0 -195 -99.5 -375t-279 -279.5t-375.5 -99.5t-375.5 99.5t-279.5 279.5t-100 375zM128 736q0 -163 83.5 -312.5t233.5 -233t313 -83.5t313 83.5t233 233t83 312.5q0 164 -84.5 315.5 t-235.5 233t-309 81.5q-159 0 -309.5 -81.5t-235.5 -233t-85 -315.5zM427 319v812h279q143 0 207 -22.5t102 -78.5t38 -119q0 -89 -63.5 -155t-168.5 -74q43 -18 69 -43q49 -48 120 -161l99 -159h-160l-72 128q-85 151 -137 189q-36 28 -105 28h-77v-345h-131zM558 776h159 q114 0 155.5 34t41.5 90q0 36 -20 64.5t-55.5 42.5t-131.5 14h-149v-245z" />
<glyph unicode="&#xaf;" horiz-adv-x="1131" d="M-31 1566v129h1193v-129h-1193z" />
<glyph unicode="&#xb0;" horiz-adv-x="819" d="M128 1214q0 115 81.5 196t195.5 81q116 0 197 -81t81 -196t-81.5 -196.5t-196.5 -81.5q-114 0 -195.5 81t-81.5 197zM237 1214q0 -70 49.5 -119.5t119.5 -49.5q69 0 118.5 49.5t49.5 119.5t-49.5 119.5t-118.5 49.5q-70 0 -119.5 -49.5t-49.5 -119.5z" />
<glyph unicode="&#xb1;" horiz-adv-x="1124" d="M78 0v168h968v-168h-968zM78 663v167h399v399h170v-399h399v-167h-399v-403h-170v403h-399z" />
<glyph unicode="&#xb2;" horiz-adv-x="682" d="M25 733q6 57 47 114q63 86 207 190.5t171 134.5q37 41 37 84q0 48 -35 79t-103 31q-66 0 -98.5 -23.5t-53.5 -90.5l-151 16q29 111 100.5 163.5t205.5 52.5q151 0 221.5 -59t70.5 -144q0 -84 -59 -159q-45 -56 -205 -171q-83 -61 -118 -97h386v-121h-623z" />
<glyph unicode="&#xb3;" horiz-adv-x="682" d="M33 929l146 15q20 -60 52 -82q43 -30 102 -30q71 0 114 39t43 94q0 50 -36 80t-123 30q-12 0 -33 -2q-14 -1 -22 -1l22 110q81 -1 118.5 29t37.5 73q0 37 -30 63t-89 26q-56 0 -87.5 -22t-54.5 -80l-143 23q41 106 103.5 148t182.5 42q144 0 209.5 -53.5t65.5 -133.5 q0 -55 -35.5 -98t-102.5 -62q89 -22 131 -72.5t42 -118.5q0 -93 -79 -162t-225 -69q-140 0 -214 55.5t-95 158.5z" />
<glyph unicode="&#xb4;" horiz-adv-x="682" d="M222 1194l133 280h236l-220 -280h-149z" />
<glyph unicode="&#xb5;" horiz-adv-x="1180" d="M160 -407v1469h178v-450q0 -245 26 -317.5t84.5 -114.5t134.5 -42q80 0 143 44t89 113.5t26 313.5v453h177v-1062h-161v126q-52 -80 -103 -110q-70 -41 -163 -41q-83 0 -147 33q-48 25 -106 99v-514h-178z" />
<glyph unicode="&#xb6;" horiz-adv-x="1100" d="M1 1044q0 193 120.5 307.5t352.5 114.5h633v-173h-144v-1700h-170v1700h-223v-1700h-165v1045q-187 10 -295.5 121.5t-108.5 284.5z" />
<glyph unicode="&#xb7;" horiz-adv-x="682" d="M238 637v205h205v-205h-205z" />
<glyph unicode="&#xb8;" horiz-adv-x="682" d="M107 -409l11 117q64 -4 94 -4q94 0 132 26q29 20 29 49q0 18 -11.5 32t-42.5 24t-103 11l52 177h134l-33 -107q85 -10 128 -52.5t43 -94.5q0 -75 -72 -132.5t-217 -57.5q-82 0 -144 12z" />
<glyph unicode="&#xb9;" horiz-adv-x="682" d="M107 1174v123q62 20 138 73t123 114h108v-751h-145v554q-102 -81 -224 -113z" />
<glyph unicode="&#xba;" horiz-adv-x="748" d="M45 1111q0 180 91.5 280t236.5 100t236.5 -100t91.5 -276q0 -175 -92 -275t-235 -100q-145 0 -237 98t-92 273zM193 1115q0 -126 50.5 -184.5t129.5 -58.5q80 0 130 58.5t50 189.5q0 122 -50.5 180t-129.5 58q-81 0 -130.5 -57t-49.5 -186z" />
<glyph unicode="&#xbb;" d="M140 72l264 456l-264 456h151l314 -456l-314 -456h-151zM530 984h148l319 -456l-319 -456h-147l260 456z" />
<glyph unicode="&#xbc;" horiz-adv-x="1708" d="M107 1174v123q62 20 138 73t123 114h108v-751h-145v554q-102 -81 -224 -113zM252 -57l1102 1548h156l-1101 -1548h-157zM1047 123v123l405 474h122v-489h104v-108h-104v-154h-144v154h-383zM1200 231h230v263z" />
<glyph unicode="&#xbd;" horiz-adv-x="1708" d="M107 1174v123q62 20 138 73t123 114h108v-751h-145v554q-102 -81 -224 -113zM228 -57l1101 1548h157l-1101 -1548h-157zM1049 -31q6 56 48 113q62 87 206 191t171 135q37 41 37 84q0 48 -34.5 78.5t-103.5 30.5q-66 0 -98.5 -23.5t-53.5 -89.5l-151 15q29 112 101 164.5 t205 52.5q151 0 221.5 -59t70.5 -144q0 -84 -59 -159q-45 -56 -204 -172q-84 -61 -119 -96h386v-121h-623z" />
<glyph unicode="&#xbe;" horiz-adv-x="1708" d="M33 929l146 15q20 -60 52 -82q43 -30 102 -30q71 0 114 39t43 94q0 50 -36 80t-120 30q-50 -3 -58 -3l22 110q81 -1 118.5 29t37.5 73q0 37 -30 63t-89 26q-56 0 -87.5 -22t-54.5 -80l-143 23q41 106 103.5 148t182.5 42q144 0 209.5 -53.5t65.5 -133.5q0 -55 -35.5 -98 t-102.5 -62q89 -22 131 -72.5t42 -118.5q0 -93 -79 -162t-225 -69q-140 0 -214 55.5t-95 158.5zM252 -57l1101 1548h157l-1101 -1548h-157zM1047 123v123l404 474h123v-489h104v-108h-104v-154h-145v154h-382zM1200 231h229v263z" />
<glyph unicode="&#xbf;" horiz-adv-x="1251" d="M158 -29q0 97 44.5 177t175.5 196q89 79 116 116t39.5 85t14.5 156h173q1 -34 1 -51q0 -110 -30 -187q-22 -58 -71 -117q-36 -43 -129.5 -125t-121 -131t-27.5 -107q0 -106 82 -185t201 -79q114 0 191.5 72t101.5 224l184 -21q-25 -203 -148.5 -313t-325.5 -110 q-216 0 -343.5 117t-127.5 283zM528 857v205h205v-205h-205z" />
<glyph unicode="&#xc0;" horiz-adv-x="1366" d="M-3 0l563 1466h209l600 -1466h-221l-171 444h-613l-161 -444h-206zM420 602h497l-153 406q-70 185 -104 304q-28 -141 -79 -280zM448 1836h241l135 -280h-145z" />
<glyph unicode="&#xc1;" horiz-adv-x="1366" d="M-3 0l563 1466h209l600 -1466h-221l-171 444h-613l-161 -444h-206zM420 602h497l-153 406q-70 185 -104 304q-28 -141 -79 -280zM541 1556l133 280h236l-220 -280h-149z" />
<glyph unicode="&#xc2;" horiz-adv-x="1366" d="M-3 0l563 1466h209l600 -1466h-221l-171 444h-613l-161 -444h-206zM345 1556l216 280h192l225 -280h-204l-110 170l-113 -170h-206zM420 602h497l-153 406q-70 185 -104 304q-28 -141 -79 -280z" />
<glyph unicode="&#xc3;" horiz-adv-x="1366" d="M-3 0l563 1466h209l600 -1466h-221l-171 444h-613l-161 -444h-206zM349 1556q-1 104 57 166q57 62 146 62q62 0 169 -54q59 -30 94 -30q32 0 49 17.5t24 69.5h130q-3 -114 -57.5 -171t-138.5 -57q-63 0 -166 56q-67 36 -98 36q-34 0 -55 -24q-22 -24 -21 -71h-133z M420 602h497l-153 406q-70 185 -104 304q-28 -141 -79 -280z" />
<glyph unicode="&#xc4;" horiz-adv-x="1366" d="M-3 0l563 1466h209l600 -1466h-221l-171 444h-613l-161 -444h-206zM379 1556v205h188v-205h-188zM420 602h497l-153 406q-70 185 -104 304q-28 -141 -79 -280zM752 1556v205h188v-205h-188z" />
<glyph unicode="&#xc5;" horiz-adv-x="1366" d="M-3 0l563 1466h209l600 -1466h-221l-171 444h-613l-161 -444h-206zM420 602h497l-153 406q-70 185 -104 304q-28 -141 -79 -280zM481 1601q0 73 53.5 126t126.5 53q74 0 127 -53.5t53 -129.5q0 -77 -53 -130t-126 -53q-75 0 -128 53.5t-53 133.5zM557 1600 q0 -47 31.5 -79t74.5 -32t74.5 32t31.5 77t-31 77t-75 32q-43 0 -74.5 -31.5t-31.5 -75.5z" />
<glyph unicode="&#xc6;" horiz-adv-x="2048" d="M1 0l705 1466h1203v-173h-737v-451h685v-172h-685v-497h764v-173h-959v423h-566l-200 -423h-210zM493 595h484v698h-145z" />
<glyph unicode="&#xc7;" horiz-adv-x="1479" d="M102 744q0 229 87.5 399.5t249 259t355.5 88.5q220 0 370 -112t209 -315l-191 -45q-51 160 -148 233t-244 73q-169 0 -282.5 -81t-159.5 -217.5t-46 -281.5q0 -187 54.5 -326.5t169.5 -208.5t249 -69q163 0 276 94t153 279l194 -49q-61 -239 -219.5 -364.5t-387.5 -125.5 q-237 0 -385.5 96.5t-226 279.5t-77.5 393zM511 -409l11 117q64 -4 94 -4q94 0 132 26q29 20 29 49q0 18 -11.5 32t-42.5 24t-103 11l52 177h134l-33 -107q85 -10 128 -52.5t43 -94.5q0 -75 -72 -132.5t-217 -57.5q-82 0 -144 12z" />
<glyph unicode="&#xc8;" horiz-adv-x="1366" d="M162 0v1466h1060v-173h-866v-449h811v-172h-811v-499h900v-173h-1094zM474 1836h241l135 -280h-145z" />
<glyph unicode="&#xc9;" horiz-adv-x="1366" d="M162 0v1466h1060v-173h-866v-449h811v-172h-811v-499h900v-173h-1094zM562 1556l133 280h236l-220 -280h-149z" />
<glyph unicode="&#xca;" horiz-adv-x="1366" d="M162 0v1466h1060v-173h-866v-449h811v-172h-811v-499h900v-173h-1094zM388 1556l216 280h192l225 -280h-204l-110 170l-113 -170h-206z" />
<glyph unicode="&#xcb;" horiz-adv-x="1366" d="M162 0v1466h1060v-173h-866v-449h811v-172h-811v-499h900v-173h-1094zM425 1556v205h188v-205h-188zM798 1556v205h188v-205h-188z" />
<glyph unicode="&#xcc;" horiz-adv-x="569" d="M54 1836h241l135 -280h-145zM191 0v1466h194v-1466h-194z" />
<glyph unicode="&#xcd;" horiz-adv-x="569" d="M141 1556l133 280h236l-220 -280h-149zM191 0v1466h194v-1466h-194z" />
<glyph unicode="&#xce;" horiz-adv-x="569" d="M-32 1556l216 280h192l225 -280h-204l-110 170l-113 -170h-206zM191 0v1466h194v-1466h-194z" />
<glyph unicode="&#xcf;" horiz-adv-x="569" d="M4 1556v205h188v-205h-188zM191 0v1466h194v-1466h-194zM377 1556v205h188v-205h-188z" />
<glyph unicode="&#xd0;" horiz-adv-x="1479" d="M-3 667v132h161v667h506q170 0 260 -21q126 -29 215 -105q116 -98 173.5 -250.5t57.5 -348.5q0 -224 -71 -385.5t-170 -234.5t-228 -104q-71 -17 -214 -17h-529v667h-161zM352 173h313q146 0 228 27t130 75q69 69 108 185t39 283q0 172 -38.5 275t-100.5 165t-138 86 t-233 24h-308v-494h404v-132h-404v-494z" />
<glyph unicode="&#xd1;" horiz-adv-x="1479" d="M156 0v1466h199l770 -1151v1151h186v-1466h-199l-770 1152v-1152h-186zM430 1556q-1 104 57 166q57 62 146 62q62 0 169 -54q59 -30 94 -30q32 0 49 17.5t24 69.5h130q-3 -114 -57.5 -171t-138.5 -57q-63 0 -166 56q-67 36 -98 36q-34 0 -55 -24q-22 -24 -21 -71h-133z " />
<glyph unicode="&#xd2;" horiz-adv-x="1593" d="M99 714q0 365 196 571.5t506 206.5q203 0 366 -97t248.5 -270.5t85.5 -393.5q0 -223 -90 -399t-255 -266.5t-356 -90.5q-207 0 -370 100t-247 273t-84 366zM299 711q0 -265 142.5 -417.5t357.5 -152.5q219 0 360.5 154t141.5 437q0 179 -60.5 312.5t-177 207t-261.5 73.5 q-206 0 -354.5 -141.5t-148.5 -472.5zM540 1836h241l135 -280h-145z" />
<glyph unicode="&#xd3;" horiz-adv-x="1593" d="M99 714q0 365 196 571.5t506 206.5q203 0 366 -97t248.5 -270.5t85.5 -393.5q0 -223 -90 -399t-255 -266.5t-356 -90.5q-207 0 -370 100t-247 273t-84 366zM299 711q0 -265 142.5 -417.5t357.5 -152.5q219 0 360.5 154t141.5 437q0 179 -60.5 312.5t-177 207t-261.5 73.5 q-206 0 -354.5 -141.5t-148.5 -472.5zM677 1556l133 280h236l-220 -280h-149z" />
<glyph unicode="&#xd4;" horiz-adv-x="1593" d="M99 714q0 365 196 571.5t506 206.5q203 0 366 -97t248.5 -270.5t85.5 -393.5q0 -223 -90 -399t-255 -266.5t-356 -90.5q-207 0 -370 100t-247 273t-84 366zM299 711q0 -265 142.5 -417.5t357.5 -152.5q219 0 360.5 154t141.5 437q0 179 -60.5 312.5t-177 207t-261.5 73.5 q-206 0 -354.5 -141.5t-148.5 -472.5zM479 1556l216 280h192l225 -280h-204l-110 170l-113 -170h-206z" />
<glyph unicode="&#xd5;" horiz-adv-x="1593" d="M99 714q0 365 196 571.5t506 206.5q203 0 366 -97t248.5 -270.5t85.5 -393.5q0 -223 -90 -399t-255 -266.5t-356 -90.5q-207 0 -370 100t-247 273t-84 366zM299 711q0 -265 142.5 -417.5t357.5 -152.5q219 0 360.5 154t141.5 437q0 179 -60.5 312.5t-177 207t-261.5 73.5 q-206 0 -354.5 -141.5t-148.5 -472.5zM466 1556q-1 104 57 166q57 62 146 62q62 0 169 -54q59 -30 94 -30q32 0 49 17.5t24 69.5h130q-3 -114 -57.5 -171t-138.5 -57q-63 0 -166 56q-67 36 -98 36q-34 0 -55 -24q-22 -24 -21 -71h-133z" />
<glyph unicode="&#xd6;" horiz-adv-x="1593" d="M99 714q0 365 196 571.5t506 206.5q203 0 366 -97t248.5 -270.5t85.5 -393.5q0 -223 -90 -399t-255 -266.5t-356 -90.5q-207 0 -370 100t-247 273t-84 366zM299 711q0 -265 142.5 -417.5t357.5 -152.5q219 0 360.5 154t141.5 437q0 179 -60.5 312.5t-177 207t-261.5 73.5 q-206 0 -354.5 -141.5t-148.5 -472.5zM516 1556v205h188v-205h-188zM889 1556v205h188v-205h-188z" />
<glyph unicode="&#xd7;" horiz-adv-x="1196" d="M161 409l315 315l-314 314l122 122l314 -314l313 313l120 -121l-312 -313l314 -314l-122 -122l-314 314l-315 -315z" />
<glyph unicode="&#xd8;" horiz-adv-x="1593" d="M83 25l176 197q-98 149 -131 254.5t-33 253.5q0 226 90 402.5t252.5 267.5t361.5 91q134 0 234.5 -35.5t216.5 -123.5l168 188l99 -84l-176 -198q86 -128 116 -224q40 -126 40 -282q0 -225 -91 -401t-255.5 -266t-349.5 -90q-138 0 -250 39q-86 30 -201 115l-168 -188z M295 733q0 -116 22 -206q16 -67 67 -165l746 835q-94 74 -164.5 101t-165.5 27q-219 0 -362 -148.5t-143 -443.5zM469 262q77 -63 142 -88q85 -33 184 -33q218 0 360 154t142 432q0 208 -85 367z" />
<glyph unicode="&#xd9;" horiz-adv-x="1479" d="M161 619v847h194v-846q0 -191 35.5 -281.5t122 -139.5t211.5 -49q214 0 305 97t91 373v846h194v-847q0 -221 -50 -351t-180.5 -211.5t-342.5 -81.5q-206 0 -337 71t-187 205.5t-56 367.5zM478 1836h241l135 -280h-145z" />
<glyph unicode="&#xda;" horiz-adv-x="1479" d="M161 619v847h194v-846q0 -191 35.5 -281.5t122 -139.5t211.5 -49q214 0 305 97t91 373v846h194v-847q0 -221 -50 -351t-180.5 -211.5t-342.5 -81.5q-206 0 -337 71t-187 205.5t-56 367.5zM614 1556l133 280h236l-220 -280h-149z" />
<glyph unicode="&#xdb;" horiz-adv-x="1479" d="M161 619v847h194v-846q0 -191 35.5 -281.5t122 -139.5t211.5 -49q214 0 305 97t91 373v846h194v-847q0 -221 -50 -351t-180.5 -211.5t-342.5 -81.5q-206 0 -337 71t-187 205.5t-56 367.5zM417 1556l216 280h192l225 -280h-204l-110 170l-113 -170h-206z" />
<glyph unicode="&#xdc;" horiz-adv-x="1479" d="M161 619v847h194v-846q0 -191 35.5 -281.5t122 -139.5t211.5 -49q214 0 305 97t91 373v846h194v-847q0 -221 -50 -351t-180.5 -211.5t-342.5 -81.5q-206 0 -337 71t-187 205.5t-56 367.5zM454 1556v205h188v-205h-188zM827 1556v205h188v-205h-188z" />
<glyph unicode="&#xdd;" horiz-adv-x="1366" d="M6 1466h236l289 -442q80 -124 149 -248q66 115 160 259l284 431h226l-585 -845v-621h-194v621zM555 1556l133 280h236l-220 -280h-149z" />
<glyph unicode="&#xde;" horiz-adv-x="1366" d="M158 0v1466h194v-298h359q146 0 224 -14q108 -19 181 -69.5t117 -141.5t44 -200q0 -186 -119 -315.5t-430 -129.5h-376v-298h-194zM352 471h379q188 0 267 70t79 196q0 91 -46 157t-122 87q-49 14 -182 14h-375v-524z" />
<glyph unicode="&#xdf;" horiz-adv-x="1251" d="M153 0v999q0 183 44.5 281.5t148.5 154.5t234 56q173 0 272 -86.5t99 -200.5q0 -51 -18 -105t-64 -134.5t-58 -112t-12 -55.5q0 -32 22 -63q21 -32 121 -97q136 -89 181 -143q64 -77 64 -182q0 -139 -102.5 -238t-262.5 -99q-126 0 -221 67.5t-142 173.5l155 72 q50 -93 100 -129t105 -36q76 0 130 52t54 122q0 56 -32 96q-21 26 -112 88q-166 114 -205 171q-40 57 -40 117q0 39 13.5 79t65 128t67.5 132t16 78q0 62 -54.5 109.5t-145.5 47.5q-107 0 -175 -66t-68 -286v-991h-180z" />
<glyph unicode="&#xe0;" d="M74 280q0 78 35.5 142.5t93 103.5t129.5 59q53 14 160 27q218 26 321 62q1 37 1 47q0 110 -51 155q-69 61 -205 61q-127 0 -187.5 -44.5t-89.5 -157.5l-176 24q24 113 79 182.5t159 107t241 37.5q136 0 221 -32t125 -80.5t56 -122.5q9 -46 9 -166v-240 q0 -251 11.5 -317.5t45.5 -127.5h-188q-28 56 -36 131q-100 -85 -192.5 -120t-198.5 -35q-175 0 -269 85.5t-94 218.5zM266 285q0 -72 54.5 -120t159.5 -48q104 0 185 45.5t119 124.5q29 61 29 180v66q-98 -40 -294 -68q-111 -16 -157 -36t-71 -58.5t-25 -85.5zM339 1474 h241l135 -280h-145z" />
<glyph unicode="&#xe1;" d="M74 280q0 78 35.5 142.5t93 103.5t129.5 59q53 14 160 27q218 26 321 62q1 37 1 47q0 110 -51 155q-69 61 -205 61q-127 0 -187.5 -44.5t-89.5 -157.5l-176 24q24 113 79 182.5t159 107t241 37.5q136 0 221 -32t125 -80.5t56 -122.5q9 -46 9 -166v-240 q0 -251 11.5 -317.5t45.5 -127.5h-188q-28 56 -36 131q-100 -85 -192.5 -120t-198.5 -35q-175 0 -269 85.5t-94 218.5zM266 285q0 -72 54.5 -120t159.5 -48q104 0 185 45.5t119 124.5q29 61 29 180v66q-98 -40 -294 -68q-111 -16 -157 -36t-71 -58.5t-25 -85.5zM463 1194 l133 280h236l-220 -280h-149z" />
<glyph unicode="&#xe2;" d="M74 280q0 78 35.5 142.5t93 103.5t129.5 59q53 14 160 27q218 26 321 62q1 37 1 47q0 110 -51 155q-69 61 -205 61q-127 0 -187.5 -44.5t-89.5 -157.5l-176 24q24 113 79 182.5t159 107t241 37.5q136 0 221 -32t125 -80.5t56 -122.5q9 -46 9 -166v-240 q0 -251 11.5 -317.5t45.5 -127.5h-188q-28 56 -36 131q-100 -85 -192.5 -120t-198.5 -35q-175 0 -269 85.5t-94 218.5zM247 1194l216 280h192l225 -280h-204l-110 170l-113 -170h-206zM266 285q0 -72 54.5 -120t159.5 -48q104 0 185 45.5t119 124.5q29 61 29 180v66 q-98 -40 -294 -68q-111 -16 -157 -36t-71 -58.5t-25 -85.5z" />
<glyph unicode="&#xe3;" d="M74 280q0 78 35.5 142.5t93 103.5t129.5 59q53 14 160 27q218 26 321 62q1 37 1 47q0 110 -51 155q-69 61 -205 61q-127 0 -187.5 -44.5t-89.5 -157.5l-176 24q24 113 79 182.5t159 107t241 37.5q136 0 221 -32t125 -80.5t56 -122.5q9 -46 9 -166v-240 q0 -251 11.5 -317.5t45.5 -127.5h-188q-28 56 -36 131q-100 -85 -192.5 -120t-198.5 -35q-175 0 -269 85.5t-94 218.5zM229 1219q-1 104 57 166q57 62 146 62q62 0 169 -54q59 -30 94 -30q32 0 49 17.5t24 69.5h130q-3 -114 -57.5 -171t-138.5 -57q-63 0 -166 56 q-67 36 -98 36q-34 0 -55 -24q-22 -24 -21 -71h-133zM266 285q0 -72 54.5 -120t159.5 -48q104 0 185 45.5t119 124.5q29 61 29 180v66q-98 -40 -294 -68q-111 -16 -157 -36t-71 -58.5t-25 -85.5z" />
<glyph unicode="&#xe4;" d="M74 280q0 78 35.5 142.5t93 103.5t129.5 59q53 14 160 27q218 26 321 62q1 37 1 47q0 110 -51 155q-69 61 -205 61q-127 0 -187.5 -44.5t-89.5 -157.5l-176 24q24 113 79 182.5t159 107t241 37.5q136 0 221 -32t125 -80.5t56 -122.5q9 -46 9 -166v-240 q0 -251 11.5 -317.5t45.5 -127.5h-188q-28 56 -36 131q-100 -85 -192.5 -120t-198.5 -35q-175 0 -269 85.5t-94 218.5zM266 285q0 -72 54.5 -120t159.5 -48q104 0 185 45.5t119 124.5q29 61 29 180v66q-98 -40 -294 -68q-111 -16 -157 -36t-71 -58.5t-25 -85.5zM283 1270 v205h188v-205h-188zM656 1270v205h188v-205h-188z" />
<glyph unicode="&#xe5;" d="M74 280q0 78 35.5 142.5t93 103.5t129.5 59q53 14 160 27q218 26 321 62q1 37 1 47q0 110 -51 155q-69 61 -205 61q-127 0 -187.5 -44.5t-89.5 -157.5l-176 24q24 113 79 182.5t159 107t241 37.5q136 0 221 -32t125 -80.5t56 -122.5q9 -46 9 -166v-240 q0 -251 11.5 -317.5t45.5 -127.5h-188q-28 56 -36 131q-100 -85 -192.5 -120t-198.5 -35q-175 0 -269 85.5t-94 218.5zM266 285q0 -72 54.5 -120t159.5 -48q104 0 185 45.5t119 124.5q29 61 29 180v66q-98 -40 -294 -68q-111 -16 -157 -36t-71 -58.5t-25 -85.5zM383 1338 q0 73 53.5 126t126.5 53q74 0 127 -53.5t53 -129.5q0 -77 -53 -130t-126 -53q-75 0 -128 53.5t-53 133.5zM459 1337q0 -47 31.5 -79t74.5 -32t74.5 32t31.5 77t-31 77t-75 32q-43 0 -74.5 -31.5t-31.5 -75.5z" />
<glyph unicode="&#xe6;" horiz-adv-x="1821" d="M68 280q0 86 49.5 161.5t138 114.5t282.5 64q150 20 252 49q1 25 1 41q0 126 -52.5 176.5t-183.5 50.5q-87 0 -147 -21t-88.5 -59.5t-47.5 -123.5l-175 21q28 117 80.5 185.5t150.5 107.5t229 39q167 0 269 -50q59 -29 99 -93q64 70 145 106.5t196 36.5q162 0 268 -78.5 t155 -207.5t49 -254q0 -19 -2 -61h-767q2 -144 35.5 -209t107 -108.5t161.5 -43.5q103 0 174.5 59t98.5 166l188 -24q-50 -167 -170 -258t-298 -91q-127 0 -222.5 48t-172.5 150q-104 -102 -210.5 -150t-229.5 -48q-172 0 -267.5 88.5t-95.5 215.5zM259 286q0 -71 53 -119.5 t154 -48.5q115 0 200.5 57t111.5 142q15 52 15 216q-79 -34 -322 -73q-109 -17 -153 -51q-59 -47 -59 -123zM969 633h584q-14 158 -90 231t-198 73q-126 0 -206.5 -80t-89.5 -224z" />
<glyph unicode="&#xe7;" horiz-adv-x="1024" d="M80 527q0 172 57 301t173.5 193.5t253.5 64.5q173 0 283 -87.5t141 -248.5l-175 -27q-25 107 -88.5 161t-153.5 54q-136 0 -221 -97.5t-85 -308.5q0 -214 82 -311t214 -97q106 0 177 65t90 200l177 -23q-29 -183 -148.5 -286.5t-293.5 -103.5q-218 0 -350.5 142.5 t-132.5 408.5zM302 -389l11 117q64 -4 94 -4q94 0 132 26q29 20 29 49q0 18 -11.5 32t-42.5 24t-103 11l52 177h134l-33 -107q85 -10 128 -52.5t43 -94.5q0 -75 -72 -132.5t-217 -57.5q-82 0 -144 12z" />
<glyph unicode="&#xe8;" d="M75 522q0 268 138 416t358 148q213 0 348 -145t135 -408q0 -16 -1 -48h-792q10 -175 99 -268t222 -93q99 0 169 52t111 166l186 -23q-44 -163 -163 -253t-304 -90q-233 0 -369.5 143.5t-136.5 402.5zM271 633h593q-12 134 -68 201q-86 104 -223 104q-124 0 -208.5 -83 t-93.5 -222zM310 1474h241l135 -280h-145z" />
<glyph unicode="&#xe9;" d="M75 522q0 268 138 416t358 148q213 0 348 -145t135 -408q0 -16 -1 -48h-792q10 -175 99 -268t222 -93q99 0 169 52t111 166l186 -23q-44 -163 -163 -253t-304 -90q-233 0 -369.5 143.5t-136.5 402.5zM271 633h593q-12 134 -68 201q-86 104 -223 104q-124 0 -208.5 -83 t-93.5 -222zM465 1194l133 280h236l-220 -280h-149z" />
<glyph unicode="&#xea;" d="M75 522q0 268 138 416t358 148q213 0 348 -145t135 -408q0 -16 -1 -48h-792q10 -175 99 -268t222 -93q99 0 169 52t111 166l186 -23q-44 -163 -163 -253t-304 -90q-233 0 -369.5 143.5t-136.5 402.5zM248 1194l216 280h192l225 -280h-204l-110 170l-113 -170h-206z M271 633h593q-12 134 -68 201q-86 104 -223 104q-124 0 -208.5 -83t-93.5 -222z" />
<glyph unicode="&#xeb;" d="M75 522q0 268 138 416t358 148q213 0 348 -145t135 -408q0 -16 -1 -48h-792q10 -175 99 -268t222 -93q99 0 169 52t111 166l186 -23q-44 -163 -163 -253t-304 -90q-233 0 -369.5 143.5t-136.5 402.5zM271 633h593q-12 134 -68 201q-86 104 -223 104q-124 0 -208.5 -83 t-93.5 -222zM284 1270v205h188v-205h-188zM657 1270v205h188v-205h-188z" />
<glyph unicode="&#xec;" horiz-adv-x="569" d="M35 1474h241l135 -280h-145zM198 0v1062h180v-1062h-180z" />
<glyph unicode="&#xed;" horiz-adv-x="569" d="M189 1194l133 280h236l-220 -280h-149zM198 0v1062h180v-1062h-180z" />
<glyph unicode="&#xee;" horiz-adv-x="569" d="M-17 1194l216 280h192l225 -280h-204l-110 170l-113 -170h-206zM198 0v1062h180v-1062h-180z" />
<glyph unicode="&#xef;" horiz-adv-x="569" d="M9 1270v205h188v-205h-188zM198 0v1062h180v-1062h-180zM382 1270v205h188v-205h-188z" />
<glyph unicode="&#xf0;" d="M73 517q0 261 129 403t323 142q58 0 102 -12t110 -47q-36 73 -63 113.5t-79 99.5l-275 -127l-44 103l239 109q-97 90 -207 165h217q72 -54 125 -102l214 102l45 -102l-172 -83q320 -368 320 -760q0 -253 -139 -399.5t-354 -146.5q-255 0 -398 194q-93 127 -93 348z M257 512q0 -194 87.5 -292t218.5 -98q128 0 217.5 103.5t89.5 303.5q0 192 -90.5 293.5t-222.5 101.5q-130 0 -215 -101.5t-85 -310.5z" />
<glyph unicode="&#xf1;" d="M135 0v1062h162v-151q117 175 338 175q96 0 176.5 -34.5t120.5 -90.5t56 -133q10 -50 10 -175v-653h-180v646q0 110 -21 164.5t-74.5 87t-125.5 32.5q-115 0 -198.5 -73t-83.5 -277v-580h-180zM262 1219q-1 104 57 166q57 62 146 62q62 0 169 -54q59 -30 94 -30 q32 0 49 17.5t24 69.5h130q-3 -114 -57.5 -171t-138.5 -57q-63 0 -166 56q-67 36 -98 36q-34 0 -55 -24q-22 -24 -21 -71h-133z" />
<glyph unicode="&#xf2;" d="M68 531q0 295 164 437q137 118 334 118q219 0 358 -143.5t139 -396.5q0 -205 -61.5 -322.5t-179 -182.5t-256.5 -65q-223 0 -360.5 143t-137.5 412zM253 531q0 -204 89 -305.5t224 -101.5q134 0 223 102t89 311q0 197 -89.5 298.5t-222.5 101.5q-135 0 -224 -101 t-89 -305zM311 1474h241l135 -280h-145z" />
<glyph unicode="&#xf3;" d="M68 531q0 295 164 437q137 118 334 118q219 0 358 -143.5t139 -396.5q0 -205 -61.5 -322.5t-179 -182.5t-256.5 -65q-223 0 -360.5 143t-137.5 412zM253 531q0 -204 89 -305.5t224 -101.5q134 0 223 102t89 311q0 197 -89.5 298.5t-222.5 101.5q-135 0 -224 -101 t-89 -305zM466 1194l133 280h236l-220 -280h-149z" />
<glyph unicode="&#xf4;" d="M68 531q0 295 164 437q137 118 334 118q219 0 358 -143.5t139 -396.5q0 -205 -61.5 -322.5t-179 -182.5t-256.5 -65q-223 0 -360.5 143t-137.5 412zM249 1194l216 280h192l225 -280h-204l-110 170l-113 -170h-206zM253 531q0 -204 89 -305.5t224 -101.5q134 0 223 102 t89 311q0 197 -89.5 298.5t-222.5 101.5q-135 0 -224 -101t-89 -305z" />
<glyph unicode="&#xf5;" d="M68 531q0 295 164 437q137 118 334 118q219 0 358 -143.5t139 -396.5q0 -205 -61.5 -322.5t-179 -182.5t-256.5 -65q-223 0 -360.5 143t-137.5 412zM231 1219q-1 104 57 166q57 62 146 62q62 0 169 -54q59 -30 94 -30q32 0 49 17.5t24 69.5h130q-3 -114 -57.5 -171 t-138.5 -57q-63 0 -166 56q-67 36 -98 36q-34 0 -55 -24q-22 -24 -21 -71h-133zM253 531q0 -204 89 -305.5t224 -101.5q134 0 223 102t89 311q0 197 -89.5 298.5t-222.5 101.5q-135 0 -224 -101t-89 -305z" />
<glyph unicode="&#xf6;" d="M68 531q0 295 164 437q137 118 334 118q219 0 358 -143.5t139 -396.5q0 -205 -61.5 -322.5t-179 -182.5t-256.5 -65q-223 0 -360.5 143t-137.5 412zM253 531q0 -204 89 -305.5t224 -101.5q134 0 223 102t89 311q0 197 -89.5 298.5t-222.5 101.5q-135 0 -224 -101 t-89 -305zM285 1270v205h188v-205h-188zM658 1270v205h188v-205h-188z" />
<glyph unicode="&#xf7;" horiz-adv-x="1124" d="M78 639v168h968v-168h-968zM459 319v205h205v-205h-205zM459 922v205h205v-205h-205z" />
<glyph unicode="&#xf8;" horiz-adv-x="1251" d="M129 516q0 301 147 435.5t345 134.5q82 0 151 -21t147 -66l99 128l96 -70l-107 -138q63 -86 86 -156q31 -100 31 -233q0 -300 -169 -441q-137 -113 -330 -113q-159 0 -281 80l-105 -135l-94 71l108 141q-59 68 -84 136q-40 109 -40 247zM314 531q0 -150 52 -251l452 587 q-91 70 -191 70q-133 0 -223 -102t-90 -304zM444 187q78 -63 176 -63q139 0 229.5 102t90.5 306q0 76 -12 133q-8 42 -35 105z" />
<glyph unicode="&#xf9;" d="M131 404v658h180v-589q0 -141 11 -190q17 -71 72 -111.5t136 -40.5t152 41.5t100.5 113t29.5 207.5v569h180v-1062h-161v156q-124 -180 -337 -180q-94 0 -175.5 36t-121 90.5t-55.5 133.5q-11 53 -11 168zM352 1474h241l135 -280h-145z" />
<glyph unicode="&#xfa;" d="M131 404v658h180v-589q0 -141 11 -190q17 -71 72 -111.5t136 -40.5t152 41.5t100.5 113t29.5 207.5v569h180v-1062h-161v156q-124 -180 -337 -180q-94 0 -175.5 36t-121 90.5t-55.5 133.5q-11 53 -11 168zM453 1194l133 280h236l-220 -280h-149z" />
<glyph unicode="&#xfb;" d="M131 404v658h180v-589q0 -141 11 -190q17 -71 72 -111.5t136 -40.5t152 41.5t100.5 113t29.5 207.5v569h180v-1062h-161v156q-124 -180 -337 -180q-94 0 -175.5 36t-121 90.5t-55.5 133.5q-11 53 -11 168zM245 1194l216 280h192l225 -280h-204l-110 170l-113 -170h-206z " />
<glyph unicode="&#xfc;" d="M131 404v658h180v-589q0 -141 11 -190q17 -71 72 -111.5t136 -40.5t152 41.5t100.5 113t29.5 207.5v569h180v-1062h-161v156q-124 -180 -337 -180q-94 0 -175.5 36t-121 90.5t-55.5 133.5q-11 53 -11 168zM281 1270v205h188v-205h-188zM654 1270v205h188v-205h-188z" />
<glyph unicode="&#xfd;" horiz-adv-x="1024" d="M33 1062h194l221 -615q43 -117 77 -246q31 124 74 242l227 619h180l-404 -1080q-65 -175 -101 -241q-48 -89 -110 -130.5t-148 -41.5q-52 0 -116 22l-20 169q59 -16 103 -16q60 0 96 20t59 56q17 27 55 134q5 15 16 44zM420 1194l133 280h236l-220 -280h-149z" />
<glyph unicode="&#xfe;" d="M135 -407v1873h180v-516q73 77 128 102q72 34 164 34q136 0 240 -70t157 -197.5t53 -279.5q0 -164 -58.5 -294t-170 -199.5t-233.5 -69.5q-83 0 -154 33q-54 26 -126 101v-517h-180zM298 525q0 -205 83 -303t201 -98q120 0 205.5 101.5t85.5 314.5q0 203 -83.5 304 t-199.5 101q-115 0 -203.5 -107.5t-88.5 -312.5z" />
<glyph unicode="&#xff;" horiz-adv-x="1024" d="M33 1062h194l221 -615q43 -117 77 -246q31 124 74 242l227 619h180l-404 -1080q-65 -175 -101 -241q-48 -89 -110 -130.5t-148 -41.5q-52 0 -116 22l-20 169q59 -16 103 -16q60 0 96 20t59 56q17 27 55 134q5 15 16 44zM243 1270v205h188v-205h-188zM616 1270v205h188 v-205h-188z" />
<glyph unicode="&#x152;" horiz-adv-x="2048" d="M129 735q0 322 142 539t450 217q264 0 400 -223v198h831v-173h-650v-448h599v-172h-599v-500h681v-173h-862v212q-135 -237 -400 -237q-301 0 -456 232q-136 205 -136 528zM329 720q0 -303 115.5 -446t275.5 -143q161 0 275.5 142.5t114.5 471.5q0 306 -115.5 447.5 t-274.5 141.5q-101 0 -197 -65t-145 -197.5t-49 -351.5z" />
<glyph unicode="&#x153;" horiz-adv-x="1933" d="M82 518q0 169 58.5 302.5t178 199.5t265.5 66q138 0 240.5 -57.5t153.5 -145.5q64 93 164.5 148t224.5 55q220 0 356 -151t134 -452h-784q3 -166 92.5 -262.5t223.5 -96.5q99 0 170.5 55.5t103.5 166.5l180 -26q-43 -165 -160.5 -254.5t-296.5 -89.5q-134 0 -240 52.5 t-168 146.5q-76 -99 -175 -149t-221 -50q-225 0 -362.5 143t-137.5 399zM267 533q0 -186 71 -283q92 -126 239 -126q129 0 221 106t92 305q0 198 -90.5 300.5t-222.5 102.5q-87 0 -160 -49t-111.5 -145t-38.5 -211zM1080 631h587q-12 151 -91.5 229t-197.5 78 q-120 0 -203.5 -82t-94.5 -225z" />
<glyph unicode="&#x178;" horiz-adv-x="1366" d="M6 1466h236l289 -442q80 -124 149 -248q66 115 160 259l284 431h226l-585 -845v-621h-194v621zM397 1556v205h188v-205h-188zM770 1556v205h188v-205h-188z" />
<glyph unicode="&#x2c6;" horiz-adv-x="682" d="M25 1194l216 280h192l225 -280h-204l-110 170l-113 -170h-206z" />
<glyph unicode="&#x2dc;" horiz-adv-x="682" d="M7 1219q-1 104 57 166q57 62 146 62q62 0 169 -54q59 -30 94 -30q32 0 49 17.5t24 69.5h130q-3 -114 -57.5 -171t-138.5 -57q-63 0 -166 56q-67 36 -98 36q-34 0 -55 -24q-22 -24 -21 -71h-133z" />
<glyph unicode="&#x2000;" horiz-adv-x="918" />
<glyph unicode="&#x2001;" horiz-adv-x="1836" />
<glyph unicode="&#x2002;" horiz-adv-x="918" />
<glyph unicode="&#x2003;" horiz-adv-x="1836" />
<glyph unicode="&#x2004;" horiz-adv-x="612" />
<glyph unicode="&#x2005;" horiz-adv-x="459" />
<glyph unicode="&#x2006;" horiz-adv-x="306" />
<glyph unicode="&#x2007;" horiz-adv-x="306" />
<glyph unicode="&#x2008;" horiz-adv-x="229" />
<glyph unicode="&#x2009;" horiz-adv-x="367" />
<glyph unicode="&#x200a;" horiz-adv-x="102" />
<glyph unicode="&#x2010;" horiz-adv-x="682" d="M65 440v181h553v-181h-553z" />
<glyph unicode="&#x2011;" horiz-adv-x="682" d="M65 440v181h553v-181h-553z" />
<glyph unicode="&#x2012;" horiz-adv-x="682" d="M65 440v181h553v-181h-553z" />
<glyph unicode="&#x2013;" d="M-4 458v145h1139v-145h-1139z" />
<glyph unicode="&#x2014;" horiz-adv-x="2048" d="M0 458v145h2048v-145h-2048z" />
<glyph unicode="&#x2018;" horiz-adv-x="455" d="M128 1011v165q0 134 32 194q42 80 133 121l44 -70q-55 -23 -81 -68.5t-29 -132.5h94v-209h-193z" />
<glyph unicode="&#x2019;" horiz-adv-x="455" d="M108 1072q54 22 80.5 69.5t29.5 130.5h-94v209h193v-165q0 -134 -31 -193q-43 -81 -134 -122z" />
<glyph unicode="&#x201a;" horiz-adv-x="455" d="M108 -200q54 22 80.5 69.5t29.5 130.5h-94v209h193v-165q0 -134 -31 -193q-43 -81 -134 -122z" />
<glyph unicode="&#x201c;" horiz-adv-x="682" d="M83 1011v165q0 134 32 194q42 80 133 121l44 -70q-55 -23 -81 -68.5t-29 -132.5h94v-209h-193zM393 1011v165q0 134 32 194q42 80 133 121l44 -70q-55 -23 -81 -68.5t-29 -132.5h94v-209h-193z" />
<glyph unicode="&#x201d;" horiz-adv-x="682" d="M71 1072q54 22 80.5 69.5t29.5 130.5h-94v209h193v-165q0 -134 -31 -193q-43 -81 -134 -122zM381 1072q54 22 80.5 69.5t29.5 130.5h-94v209h193v-165q0 -134 -31 -193q-43 -81 -134 -122z" />
<glyph unicode="&#x201e;" horiz-adv-x="682" d="M71 -200q54 22 80.5 69.5t29.5 130.5h-94v209h193v-165q0 -134 -31 -193q-43 -81 -134 -122zM381 -200q54 22 80.5 69.5t29.5 130.5h-94v209h193v-165q0 -134 -31 -193q-43 -81 -134 -122z" />
<glyph unicode="&#x2022;" horiz-adv-x="717" d="M109 718q0 105 74.5 179t178.5 74q105 0 179.5 -74t74.5 -179t-74.5 -179.5t-179.5 -74.5q-104 0 -178.5 74.5t-74.5 179.5z" />
<glyph unicode="&#x2026;" horiz-adv-x="2048" d="M239 0v205h205v-205h-205zM922 0v205h205v-205h-205zM1604 0v205h206v-205h-206z" />
<glyph unicode="&#x202f;" horiz-adv-x="367" />
<glyph unicode="&#x2039;" horiz-adv-x="682" d="M92 527l315 457h149l-265 -457l265 -455h-149z" />
<glyph unicode="&#x203a;" horiz-adv-x="682" d="M92 72l265 458l-265 454h149l304 -448l-304 -464h-149z" />
<glyph unicode="&#x205f;" horiz-adv-x="459" />
<glyph unicode="&#x20ac;" d="M-28 535l28 134h105q-3 42 -3 91q0 20 1 41h-131l28 134h116q62 326 323 468q161 88 355 88q186 0 313 -81l-40 -186q-122 101 -277 101q-168 0 -282 -81q-68 -48 -123 -136q-56 -91 -66 -173h682l-27 -134h-671q-1 -21 -1 -40q0 -77 1 -92h644l-28 -134h-595 q42 -229 202 -325q115 -69 249 -69q187 0 292 98v-206q-125 -58 -276 -58q-452 0 -611 376q-32 76 -55 184h-153z" />
<glyph unicode="&#x2122;" horiz-adv-x="2048" d="M225 1345v121h666v-121h-266v-694h-136v694h-264zM982 651v815h200l206 -651l199 651h196v-815h-124v684l-210 -684h-123l-219 694v-694h-125z" />
<glyph unicode="&#x25fc;" horiz-adv-x="1060" d="M0 0v1060h1060v-1060h-1060z" />
<glyph unicode="&#xfb01;" horiz-adv-x="1024" d="M23 923v139h160v103q0 158 68 242t215 84q99 0 183 -23l-28 -152q-53 9 -97 9q-93 0 -127 -37t-34 -157v-69h206v-139h-206v-923h-180v923h-160zM705 0v1062h180v-1062h-180zM705 1259v207h180v-207h-180z" />
<glyph unicode="&#xfb02;" horiz-adv-x="1024" d="M23 923v139h160v103q0 158 68 242t215 84q99 0 183 -23l-28 -152q-53 9 -97 9q-93 0 -127 -37t-34 -157v-69h206v-139h-206v-923h-180v923h-160zM703 0v1466h180v-1466h-180z" />
<glyph unicode="&#xfb03;" horiz-adv-x="1542" d="M19 923v139h160v103q0 158 68 242t215 84q97 0 183 -23l-28 -152q-53 9 -97 9q-93 0 -127 -37t-34 -157v-69h340v103q0 158 68 242t215 84q97 0 183 -23l-28 -152q-53 9 -97 9q-93 0 -127 -37t-34 -157v-69h206v-139h-206v-923h-180v923h-340v-923h-180v923h-160zM1223 0 v1062h180v-1062h-180zM1223 1259v207h180v-207h-180z" />
<glyph unicode="&#xfb04;" horiz-adv-x="1542" d="M19 923v139h160v103q0 158 68 242t215 84q97 0 183 -23l-28 -152q-53 9 -97 9q-93 0 -127 -37t-34 -157v-69h340v103q0 158 68 242t215 84q97 0 183 -23l-28 -152q-53 9 -97 9q-93 0 -127 -37t-34 -157v-69h206v-139h-206v-923h-180v923h-340v-923h-180v923h-160zM1223 0 v1466h180v-1466h-180z" />
<hkern u1="&#x20;" u2="Y" k="37" />
<hkern u1="&#x20;" u2="T" k="37" />
<hkern u1="&#x20;" u2="A" k="113" />
<hkern u1="&#x31;" u2="&#x31;" k="152" />
<hkern u1="A" u2="&#x2019;" k="152" />
<hkern u1="A" u2="y" k="37" />
<hkern u1="A" u2="w" k="37" />
<hkern u1="A" u2="v" k="37" />
<hkern u1="A" u2="Y" k="152" />
<hkern u1="A" u2="W" k="76" />
<hkern u1="A" u2="V" k="152" />
<hkern u1="A" u2="T" k="152" />
<hkern u1="A" u2="&#x20;" k="113" />
<hkern u1="F" u2="A" k="113" />
<hkern u1="F" u2="&#x2e;" k="227" />
<hkern u1="F" u2="&#x2c;" k="227" />
<hkern u1="L" u2="&#x2019;" k="113" />
<hkern u1="L" u2="y" k="76" />
<hkern u1="L" u2="Y" k="152" />
<hkern u1="L" u2="W" k="152" />
<hkern u1="L" u2="V" k="152" />
<hkern u1="L" u2="T" k="152" />
<hkern u1="L" u2="&#x20;" k="76" />
<hkern u1="P" u2="A" k="152" />
<hkern u1="P" u2="&#x2e;" k="264" />
<hkern u1="P" u2="&#x2c;" k="264" />
<hkern u1="P" u2="&#x20;" k="37" />
<hkern u1="R" u2="Y" k="37" />
<hkern u1="R" u2="W" k="37" />
<hkern u1="R" u2="V" k="37" />
<hkern u1="R" u2="T" k="37" />
<hkern u1="T" u2="y" k="113" />
<hkern u1="T" u2="w" k="113" />
<hkern u1="T" u2="u" k="76" />
<hkern u1="T" u2="s" k="227" />
<hkern u1="T" u2="r" k="76" />
<hkern u1="T" u2="o" k="227" />
<hkern u1="T" u2="i" k="76" />
<hkern u1="T" u2="e" k="227" />
<hkern u1="T" u2="c" k="227" />
<hkern u1="T" u2="a" k="227" />
<hkern u1="T" u2="O" k="37" />
<hkern u1="T" u2="A" k="152" />
<hkern u1="T" u2="&#x3b;" k="227" />
<hkern u1="T" u2="&#x3a;" k="227" />
<hkern u1="T" u2="&#x2e;" k="227" />
<hkern u1="T" u2="&#x2d;" k="113" />
<hkern u1="T" u2="&#x2c;" k="227" />
<hkern u1="T" u2="&#x20;" k="37" />
<hkern u1="V" u2="y" k="76" />
<hkern u1="V" u2="u" k="76" />
<hkern u1="V" u2="r" k="76" />
<hkern u1="V" u2="o" k="113" />
<hkern u1="V" u2="i" k="37" />
<hkern u1="V" u2="e" k="113" />
<hkern u1="V" u2="a" k="152" />
<hkern u1="V" u2="A" k="152" />
<hkern u1="V" u2="&#x3b;" k="76" />
<hkern u1="V" u2="&#x3a;" k="76" />
<hkern u1="V" u2="&#x2e;" k="188" />
<hkern u1="V" u2="&#x2d;" k="113" />
<hkern u1="V" u2="&#x2c;" k="188" />
<hkern u1="W" u2="y" k="18" />
<hkern u1="W" u2="u" k="37" />
<hkern u1="W" u2="r" k="37" />
<hkern u1="W" u2="o" k="37" />
<hkern u1="W" u2="e" k="37" />
<hkern u1="W" u2="a" k="76" />
<hkern u1="W" u2="A" k="76" />
<hkern u1="W" u2="&#x3b;" k="37" />
<hkern u1="W" u2="&#x3a;" k="37" />
<hkern u1="W" u2="&#x2e;" k="113" />
<hkern u1="W" u2="&#x2d;" k="37" />
<hkern u1="W" u2="&#x2c;" k="113" />
<hkern u1="Y" u2="v" k="113" />
<hkern u1="Y" u2="u" k="113" />
<hkern u1="Y" u2="q" k="188" />
<hkern u1="Y" u2="p" k="152" />
<hkern u1="Y" u2="o" k="188" />
<hkern u1="Y" u2="i" k="76" />
<hkern u1="Y" u2="e" k="188" />
<hkern u1="Y" u2="a" k="152" />
<hkern u1="Y" u2="A" k="152" />
<hkern u1="Y" u2="&#x3b;" k="133" />
<hkern u1="Y" u2="&#x3a;" k="113" />
<hkern u1="Y" u2="&#x2e;" k="264" />
<hkern u1="Y" u2="&#x2d;" k="188" />
<hkern u1="Y" u2="&#x2c;" k="264" />
<hkern u1="Y" u2="&#x20;" k="37" />
<hkern u1="f" u2="&#x2019;" k="-37" />
<hkern u1="f" u2="f" k="37" />
<hkern u1="r" u2="&#x2019;" k="-76" />
<hkern u1="r" u2="&#x2e;" k="113" />
<hkern u1="r" u2="&#x2c;" k="113" />
<hkern u1="v" u2="&#x2e;" k="152" />
<hkern u1="v" u2="&#x2c;" k="152" />
<hkern u1="w" u2="&#x2e;" k="113" />
<hkern u1="w" u2="&#x2c;" k="113" />
<hkern u1="y" u2="&#x2e;" k="152" />
<hkern u1="y" u2="&#x2c;" k="152" />
<hkern u1="&#x2018;" u2="&#x2018;" k="37" />
<hkern u1="&#x2019;" u2="&#x2019;" k="37" />
<hkern u1="&#x2019;" u2="s" k="37" />
<hkern u1="&#x2019;" u2="&#x20;" k="76" />
</font>
</defs></svg> 